Miscellaneous Functions for Japanese Mahjong • shikakusphere
…
<skksph_paistr>をprint()したときに表示される牌の枚数は不正確な場合があります。手牌の表現にどの牌が何枚含まれるかを正確に確認するには、tidy(<skksph_paistr>)を使うことができます。

tidy(hands)
#> # A tibble: 43 × 3
#>       id tile      n
#>    <int> <fct> <int>
#>  1     1 m1        2
#>  2     1 p2        1
#>  3     1 p3        1
#>  4     1 p4        1
#>  5     1 s5        3
#>  6     1 z1        3
#>  7     1 z2        2
#>  8     2 p1        2
#>  9     2 p2        2
#> 10     2 p3        2
#> # ℹ 33 more rows
…
convlogパッケージを使うと、天鳳のJSON形式（tenhou.net/6）のファイルから牌譜を読み込むことができます。

convlog::read_tenhou6()の戻り値は、次のようなかたちをしています。

json_log <-
  list.files(
    system.file("testdata/", package = "convlog"),
    pattern = "*.json$",
    full.names = TRUE
  ) |>
  convlog::read_tenhou6()

json_log
#> $game_info
#> # A tibble: 21 × 4
#>    game_id names        qijia aka  
#>      <int> <named list> <int> <lgl>
#>  1       1 <chr [4]>        4 TRUE 
#>  2       2 <chr [4]>        0 TRUE 
#>  3       3 <chr [4]>        0 TRUE 
#>  4       4 <chr [4]>        0 TRUE 
#>  5       5 <chr [4]>        0 TRUE 
#>  6       6 <chr [4]>        0 TRUE 
#>  7       7 <chr [4]>        0 TRUE 
#>  8       8 <chr [4]>        0 TRUE 
#>  9       9 <chr [4]>        0 TRUE 
#> 10      10 <chr [4]>        0 TRUE 
#> # ℹ 11 more rows
#> 
#> $round_info
#> # A tibble: 33 × 10
#>    game_id round_id bakaze dora_marker kyoku honba kyotaku   oya scores tehais  
#>      <int>    <int> <chr>  <chr>       <int> <int>   <int> <int> <list> <list>  
#>  1       1        1 E      3s              1     0       0     0 <int>  <chr[…]>
#>  2       2        1 E      4m              3     3       0     2 <int>  <chr[…]>
#>  3       3        1 E      6m              1     0       0     0 <int>  <chr[…]>
#>  4       4        1 E      E               4     0       0     3 <int>  <chr[…]>
#>  5       5        1 E      8p              2     2       0     1 <int>  <chr[…]>
#>  6       6        1 E      7s              1     0       0     0 <int>  <chr[…]>
#>  7       7        1 S      6s              4     0       0     3 <int>  <chr[…]>
#>  8       8        1 S      2m              4     1       1     3 <int>  <chr[…]>
#>  9       9        1 S      2m              1     0       0     0 <int>  <chr[…]>
#> 10      10        1 S      7s              2     2       0     1 <int>  <chr[…]>
#> # ℹ 23 more rows
#> 
#> $paifu
#> # A tibble: 3,255 × 12
#>    game_id round_id event_id type  actor target pai   tsumogiri consumed
#>      <int>    <int>    <int> <chr> <int>  <int> <chr> <lgl>     <list>  
#>  1       1        1        1 tsumo     0     NA S     NA        <NULL>  
#>  2       1        1        2 dahai     0     NA N     FALSE     <NULL>  
#>  3       1        1        3 tsumo     1     NA 2m    NA        <NULL>  
#>  4       1        1        4 dahai     1     NA 8p    FALSE     <NULL>  
#>  5       1        1        5 tsumo     2     NA 6p    NA        <NULL>  
#>  6       1        1        6 dahai     2     NA 8s    FALSE     <NULL>  
#>  7       1        1        7 tsumo     3     NA 1m    NA        <NULL>  
#>  8       1        1        8 dahai     3     NA P     FALSE     <NULL>  
#>  9       1        1        9 tsumo     0     NA 1m    NA        <NULL>  
#> 10       1        1       10 dahai     0     NA 1p    FALSE     <NULL>  
#> # ℹ 3,245 more rows
#> # ℹ 3 more variables: dora_marker <chr>, deltas <list>, ura_markers <list>
…
paifu
#> # A tibble: 3,185 × 12
#>    game_id round_id event_id type  actor target pai   tsumogiri consumed
#>      <int>    <int>    <int> <chr> <int>  <int> <chr> <lgl>     <list>  
#>  1       1        1        1 tsumo     0     NA z2    FALSE     <NULL>  
#>  2       1        1        2 dahai     0     NA z4    FALSE     <NULL>  
#>  3       1        1        3 tsumo     1     NA m2    FALSE     <NULL>  
#>  4       1        1        4 dahai     1     NA p8    FALSE     <NULL>  
#>  5       1        1        5 tsumo     2     NA p6    FALSE     <NULL>  
#>  6       1        1        6 dahai     2     NA s8    FALSE     <NULL>  
#>  7       1        1        7 tsumo     3     NA m1    FALSE     <NULL>  
#>  8       1        1        8 dahai     3     NA z5    FALSE     <NULL>  
#>  9       1        1        9 tsumo     0     NA m1    FALSE     <NULL>  
#> 10       1        1       10 dahai     0     NA p1    FALSE     <NULL>  
#> # ℹ 3,175 more rows
#> # ℹ 3 more variables: dora_marker <chr>, deltas <list>, ura_markers <list>
…
  ) |>
  dplyr::left_join(qipai, by = dplyr::join_by(game_id, round_id, actor)) |>
  dplyr::reframe(
    game_id = game_id,
    round_id = round_id,
    player = actor,
    last_state = proceed(qipai, zimo, dapai)
  )
#> Warning: There were 2 warnings in `dplyr::reframe()`.
#> The first warning was:
#> ℹ In argument: `last_state = proceed(qipai, zimo, dapai)`.
#> Caused by warning in `.Call()`:
#> ! possibly incorrect mianzi at: m04-6
#> ℹ Run `dplyr::last_dplyr_warnings()` to see the 1 remaining warning.
#> # A tibble: 130 × 4
#>    game_id round_id player last_state                    
#>      <int>    <int>  <int> <paistr>                      
#>  1       1        1      0 <13>'m34677p33405s123'        
#>  2       1        1      1 <13>'m12227999z13336'         
#>  3       1        1      2 <13>'m05567s40z111,m333='     
#>  4       1        1      3 <14>'m56688p3377s4,s666-6'    
#>  5       2        1      2 <13>'m24777789z55,m666-'      
#>  6       2        1      3 <14>'m3445688s406m2,z222+'    
#>  7       2        1      0 <13>'m2255p345567s567'        
#>  8       2        1      1 <13>'m3p222,z777=,s222=,z111-'
#>  9       3        1      0 <13>'m34p8s23466z11,m67-8'    
#> 10       3        1      1 <13>'m88p456s06789,z555-'     
#> # ℹ 120 more rows
…
