…
plot(hands[4])
```

<img src="man/figures/README-unnamed-chunk-2-1.png" width="100%" />

`<skksph_paistr>`を`print()`したときに表示される牌の枚数は不正確な場合があります。手牌の表現にどの牌が何枚含まれるかを正確に確認するには、`tidy(<skksph_paistr>)`を使うことができます。

``` r
tidy(hands)
#> # A tibble: 41 × 3
#>       id tile      n
#>    <int> <fct> <int>
#>  1     1 m1        2
#>  2     1 p2        1
#>  3     1 p3        1
#>  4     1 p4        1
#>  5     1 s5        3
#>  6     1 z1        3
#>  7     1 z2        2
#>  8     2 p1        2
#>  9     2 p2        2
#> 10     2 p3        2
#> # ℹ 31 more rows
```
…
